<?xml version="1.0" encoding="UTF-8"?>
<svg width="177px" height="177px" viewBox="0 0 177 177" version="1.1" xmlns="http://www.w3.org/2000/svg" xmlns:xlink="http://www.w3.org/1999/xlink">
    <title>Abp_icon</title>
    <g id="Landings" stroke="none" stroke-width="1" fill="none" fill-rule="evenodd">
        <g id="logo-abp">
            <polygon id="Fill-1" fill="#D8D9D9" points="52.4968971 0.948195938 0.948023138 52.4970699 0.948023138 125.399322 52.4968971 176.948196 125.397376 176.948196 176.948023 125.399322 176.948023 52.4970699 125.397376 0.948195938"></polygon>
            <polygon id="Fill-2" fill="#FFFFFF" points="53.8995185 4.33270378 4.33183978 53.8986545 4.33183978 123.996701 53.8995185 173.562651 123.997565 173.562651 173.563515 123.996701 173.563515 53.8986545 123.997565 4.33270378"></polygon>
            <polygon id="Fill-3" fill="#ED1E45" points="57.168376 165.670012 12.2248252 120.726461 12.2248252 57.1688944 57.168376 12.2253436 120.72767 12.2253436 165.669493 57.1688944 165.669493 120.726461 120.72767 165.670012"></polygon>
            <path d="M47.0334834,93.2709606 L45.8325235,87.7413608 C45.0842995,84.7329128 44.3637235,81.5378409 43.6707955,78.157873 C42.9761396,74.7796331 42.2814836,71.5223532 41.5885556,68.3894893 L41.2688756,68.3894893 C40.6277876,71.5845612 39.9728756,74.8556651 39.3075957,78.204529 C38.6388597,81.5533929 37.9321077,84.7329128 37.1856117,87.7413608 L35.9034357,93.2709606 L47.0334834,93.2709606 Z M49.4354034,103.868784 L33.5015158,103.868784 L30.2995319,118.152432 L18.2899322,118.152432 L34.6229878,58.0681456 L48.7943154,58.0681456 L65.129099,118.152432 L52.6373873,118.152432 L49.4354034,103.868784 Z" id="Fill-4" fill="#FFFFFF"></path>
            <path d="M90.8298151,107.646883 C97.2873509,107.646883 100.516983,104.913188 100.516983,99.4457957 C100.516983,96.8036837 99.7169189,94.8838758 98.1150629,93.6863718 C96.5132069,92.4871398 94.083639,91.8892519 90.8298151,91.8892519 L84.1839273,91.8892519 L84.1839273,107.646883 L90.8298151,107.646883 Z M89.7083431,82.3040361 C92.590647,82.3040361 94.684983,81.6456681 95.993079,80.3237482 C97.3011749,79.0035562 97.9560869,77.2064362 97.9560869,74.9323883 C97.9560869,72.6600684 97.2873509,71.0322924 95.953335,70.0490604 C94.619319,69.0658285 92.562999,68.5733485 89.7878311,68.5733485 L84.1839273,68.5733485 L84.1839273,82.3040361 L89.7083431,82.3040361 Z M72.4145196,58.0688368 L90.2682151,58.0688368 C92.991543,58.0688368 95.512695,58.2986607 97.8351269,58.7600367 C100.157559,59.2214127 102.184503,60.0353007 103.921143,61.2017007 C105.654327,62.3698286 107.015991,63.9060206 108.004407,65.8085486 C108.991095,67.7145325 109.485303,70.1112684 109.485303,72.9970284 C109.485303,74.3500523 109.310775,75.7013483 108.965175,77.0526443 C108.616119,78.4039402 108.095991,79.6636522 107.403063,80.8300522 C106.708407,81.9981801 105.801207,83.0418921 104.681463,83.9629161 C103.559991,84.885668 102.251895,85.561316 100.757175,85.991588 L100.757175,86.359652 C104.493111,87.157988 107.309751,88.6959079 109.205367,90.9664999 C111.099255,93.2405478 112.046199,96.4045157 112.046199,100.458404 C112.046199,103.530788 111.526071,106.172899 110.485815,108.384739 C109.445559,110.596579 108.004407,112.424803 106.162359,113.867683 C104.320311,115.312291 102.170679,116.387107 99.7169189,117.092131 C97.2614309,117.800611 94.619319,118.153123 91.7905831,118.153123 L72.4145196,118.153123 L72.4145196,58.0688368 Z" id="Fill-6" fill="#FFFFFF"></path>
            <path d="M138.4687,87.0045416 C144.874396,87.0045416 148.07638,83.8111977 148.07638,77.4210538 C148.07638,74.2881899 147.262492,72.07635 145.634716,70.785534 C144.005212,69.4947181 141.617116,68.8501741 138.4687,68.8501741 L131.904028,68.8501741 L131.904028,87.0045416 L138.4687,87.0045416 Z M120.132893,58.0691824 L139.189276,58.0691824 C142.018012,58.0691824 144.673948,58.3905903 147.155356,59.0368623 C149.638492,59.6814063 151.80022,60.7562223 153.64054,62.2613102 C155.482588,63.7681262 156.935836,65.7639662 158.005468,68.2522861 C159.071644,70.738878 159.605596,73.7957099 159.605596,77.4210538 C159.605596,80.9219818 159.05782,83.9632617 157.963996,86.5431656 C156.870172,89.1247975 155.389276,91.2433255 153.521308,92.9022054 C151.651612,94.5610854 149.489884,95.7914214 147.036124,96.5880293 C144.578908,97.3880933 141.964444,97.7872613 139.189276,97.7872613 L131.904028,97.7872613 L131.904028,118.151741 L120.132893,118.151741 L120.132893,58.0691824 Z" id="Fill-8" fill="#FFFFFF"></path>
        </g>
    </g>
</svg>